# Blender v2.75 (sub 0) OBJ File: 'basicDone.blend'
# www.blender.org
o s.walls.whiteboxwall_Cube.023
v -153.587326 36.317268 161.996338
v -153.702484 332.381226 161.609039
v -153.587326 36.317268 -519.773682
v -153.702484 332.381226 -520.161011
v -537.677734 35.793037 -518.789490
v -537.677734 36.841499 160.965240
v -153.587326 36.317268 161.996338
v -214.454880 976.477844 -519.536560
v -537.677734 976.477844 -519.564026
v -537.677734 977.526306 160.190674
v -561.720764 977.526306 160.190674
v -157.635178 976.810547 160.285034
v -217.638641 976.810547 160.285004
v -537.677734 35.793037 -518.789490
v -537.677734 36.841499 160.965240
v -213.360519 35.793037 -518.789429
v -561.720764 36.841499 160.965240
v -537.677734 976.477844 -519.564026
v -537.677734 977.526306 160.190674
v -561.720764 977.526306 160.190674
v -153.817627 976.477844 161.221741
v -217.638641 976.810547 160.285004
v -153.587326 36.317268 161.372070
v -214.224579 36.317268 161.996338
v -214.454880 976.477844 161.221741
v -153.702484 332.381226 161.609039
v -153.817627 976.477844 -520.548279
v -153.702484 332.381226 -520.161011
v 349.902649 36.317268 -519.773682
v 349.672363 976.477844 -520.548279
v 349.787506 332.381226 -520.161011
v 349.902649 36.317268 515.096985
v 349.672363 976.477844 514.322388
v 349.787506 332.381226 514.709656
v -553.204834 36.317268 515.096985
v -553.320007 332.381226 514.709656
v -553.204834 36.317268 146.581940
v -553.320007 332.381226 146.194611
vt 0.297391 0.395375
vt 0.297284 0.313514
vt 0.485790 0.313514
vt 0.043520 0.048850
vt 0.051619 0.313029
vt 0.044615 0.313201
vt 0.322910 0.310085
vt 0.233751 0.309445
vt 0.235614 0.049962
vt 0.051620 0.313155
vt 0.044617 0.313323
vt 0.512864 0.052166
vt 0.528895 0.133969
vt 0.510693 0.311502
vt 0.325075 0.050604
vt 0.527420 0.311638
vt 0.716954 0.135644
vt 0.118726 0.415407
vt 0.036866 0.415407
vt 0.036999 0.313514
vt 0.118629 0.665112
vt 0.036768 0.665112
vt 0.037143 0.951249
vt 0.119003 0.951249
vt 0.296719 0.664986
vt 0.485898 0.395375
vt 0.036768 0.049050
vt 0.233783 0.312606
vt 0.048106 0.048751
vt 0.529590 0.052302
vt 0.715479 0.313313
vt 0.118859 0.313514
vt 0.297093 0.951123
vn 1.000000 0.000400 0.000000
vn 0.000000 0.000800 1.000000
vn -0.000100 0.000800 1.000000
vn 1.000000 -0.000000 0.000000
vn 0.000000 0.000000 1.000000
vn 0.002400 0.000800 1.000000
vn -1.000000 -0.001200 0.000000
vn 1.000000 0.000200 0.000000
vn 0.000000 -0.001300 -1.000000
vn -1.000000 -0.000400 0.000000
vn -1.000000 -0.000200 0.000000
vn 0.000000 0.001300 1.000000
vn 0.000000 0.000600 1.000000
vn -1.000000 -0.000200 -0.001300
s off
f 2/1/1 1/2/1 3/3/1
f 15/4/2 19/5/2 20/6/2
f 8/7/3 18/8/3 14/9/3
f 15/4/4 14/9/4 18/8/4
f 19/5/5 10/10/5 11/11/5
f 24/12/6 26/13/6 25/14/6
f 25/14/7 8/7/7 16/15/7
f 21/16/8 26/13/8 28/17/8
f 36/18/1 35/19/1 37/20/1
f 34/21/9 32/22/9 35/19/9
f 29/23/10 32/22/10 34/21/10
f 31/24/11 34/21/11 33/25/11
f 4/26/1 2/1/1 3/3/1
f 17/27/2 15/4/2 20/6/2
f 16/15/2 8/7/2 14/9/2
f 10/10/5 19/5/5 15/4/5
f 18/8/5 9/28/5 10/10/5
f 15/4/5 6/29/5 14/9/5
f 15/4/4 18/8/4 10/10/4
f 20/6/5 19/5/5 11/11/5
f 26/13/12 24/12/12 7/30/12
f 26/13/13 21/16/13 25/14/13
f 24/12/14 25/14/14 16/15/14
f 27/31/8 21/16/8 28/17/8
f 38/32/1 36/18/1 37/20/1
f 36/18/9 34/21/9 35/19/9
f 31/24/10 29/23/10 34/21/10
f 30/33/11 31/24/11 33/25/11
l 10 6
l 6 5
o walkway.ceiling_Cube.022
v -537.729492 287.024170 -84.667664
v -213.196091 285.289856 -78.967545
v -537.725830 287.555359 -51.104019
v -213.192459 285.821045 -51.111008
v -537.563782 308.967957 -51.158012
v -537.578918 311.045166 512.341919
v -213.030411 307.233643 -51.165001
v -213.026779 307.764832 159.413895
v -213.045517 309.310852 512.334961
v 363.692017 309.756683 159.430618
v 363.673279 311.302704 512.351685
v 347.008057 309.798370 -518.789429
v -153.357025 309.798370 -518.789429
v -154.247971 309.798126 161.573242
vt 0.285560 0.005120
vt 0.285562 0.029625
vt 0.000120 0.029642
vt 0.285612 0.233671
vt 0.792859 0.233687
vt 0.792847 0.544097
vt 0.000163 0.048476
vt 0.000157 0.544096
vt 0.285605 0.048459
vt 0.000121 0.544332
vt 0.598515 0.547595
vt 0.596691 0.987679
vt 0.000118 0.000118
vt 0.285600 0.544080
vt 0.000118 0.999882
vn -0.005300 -0.999800 0.019100
vn 0.003500 -1.000000 0.004400
vn -0.006100 -1.000000 0.003700
vn 0.000000 0.002500 1.000000
vn 0.000000 -1.000000 -0.000000
vn -0.005600 -0.999900 0.015800
vn -0.005300 -1.000000 0.002500
vn -0.005300 -1.000000 0.004400
vn -0.000100 -1.000000 -0.000100
s off
f 40/34/15 42/35/15 41/36/15
f 46/37/16 48/38/16 49/39/16
f 43/40/17 46/37/17 44/41/17
f 42/35/18 45/42/18 43/40/18
f 52/43/19 51/44/19 50/45/19
f 39/46/20 40/34/20 41/36/20
f 47/47/16 46/37/16 49/39/16
f 46/37/21 43/40/21 45/42/21
f 46/37/22 47/47/22 44/41/22
f 41/36/18 42/35/18 43/40/18
f 48/48/23 52/43/23 50/45/23
#o walkway.light_Cube.021
v 73.619324 303.152405 -74.456879
v 73.619324 315.351410 -74.456879
v 73.619324 303.152405 -111.970062
v 73.619324 315.351410 -111.970062
v 111.132477 303.152405 -74.456879
v 111.132477 315.351410 -74.456879
v 111.132477 303.152405 -111.970062
v 111.132477 315.351410 -111.970062
vn -1.000000 0.000000 0.000000
vn 0.000000 0.000000 -1.000000
vn 1.000000 0.000000 0.000000
vn 0.000000 0.000000 1.000000
vn 0.000000 -1.000000 0.000000
s off
#f 56//24 55//24 53//24
#f 60//25 59//25 55//25
#f 58//26 57//26 59//26
#f 54//27 53//27 57//27
#f 55//28 59//28 57//28
#f 54//24 56//24 53//24
#f 56//25 60//25 55//25
#f 60//26 58//26 59//26
#f 58//27 54//27 57//27
#f 53//28 55//28 57//28
#o stairs.light_Cube.020
v -389.407471 368.131622 -512.419189
v -389.407471 407.232574 -512.419189
v -389.407471 368.131622 -525.145630
v -389.407471 407.232574 -525.145630
v -350.306519 368.131622 -512.419189
v -350.306519 407.232574 -512.419189
v -350.306519 368.131622 -525.145630
v -350.306519 407.232574 -525.145630
vn -1.000000 0.000000 0.000000
vn 1.000000 0.000000 0.000000
vn 0.000000 0.000000 1.000000
vn 0.000000 -1.000000 0.000000
vn 0.000000 1.000000 0.000000
s off
#f 64//29 63//29 61//29
#f 66//30 65//30 67//30
#f 62//31 61//31 65//31
#f 63//32 67//32 65//32
#f 68//33 64//33 62//33
#f 62//29 64//29 61//29
#f 68//30 66//30 67//30
#f 66//31 62//31 65//31
#f 61//32 63//32 65//32
#f 66//33 68//33 62//33
o stairs.ceiling_Cube.019
v -214.454880 786.787964 -519.536560
v -537.677734 786.787964 -519.564026
v -537.677734 787.836426 160.190674
v -537.677734 786.787964 -519.564026
v -214.454880 786.787964 161.221741
v -214.454880 976.860413 -179.157410
v -537.677734 977.384705 -179.686676
vt 0.496963 0.413424
vt 0.000065 0.415594
vt 0.000064 0.003614
vt 0.999936 0.000170
vt 0.993864 0.412039
vt 0.496078 0.001447
vt 0.992748 0.000064
vn -0.001300 -0.873100 -0.487500
vn -0.000000 -0.872200 0.489100
vn -0.000600 -0.873400 -0.487100
vn 0.000000 0.000000 1.000000
vn -0.002200 -0.873100 0.487500
s off
f 74/49/34 73/50/34 71/51/34
f 72/52/35 69/53/35 75/54/35
f 75/54/36 74/49/36 71/51/36
f 75/54/37 70/55/37 72/52/37
f 69/53/38 74/49/38 75/54/38
o stairs.ConcretRail_Cube.017
v -417.583435 346.347076 -79.444473
v -405.732910 346.347076 -79.444473
v -417.583435 176.738632 -354.077026
v -405.732910 176.738632 -354.077026
v -333.642212 35.793037 -358.554565
v -417.491577 285.084106 -78.960526
v -345.114227 36.841499 -188.832275
v -345.792847 36.689472 -298.817993
v -344.809082 36.841499 -78.846558
v -346.434052 35.793037 -358.554565
v -333.642212 36.841499 -78.846558
v -344.809082 36.841499 -78.846558
v -333.642212 107.794464 -78.846558
v -344.809082 107.794464 -78.846558
v -333.642212 276.088470 -358.554565
v -346.434052 276.088470 -358.554565
v -333.642212 276.471008 -346.910095
v -346.365936 276.423157 -346.830597
v -417.651550 276.088470 -358.554565
v -417.583435 276.423157 -346.830597
v -417.651550 25.943176 -358.554565
v -213.196091 285.289856 -78.967545
v -213.289536 376.895325 -79.372467
v -417.585022 376.689575 -79.365456
v -405.732910 276.423157 -346.830597
v -405.801025 276.088470 -358.554565
v -417.583435 446.922211 -79.444473
v -405.732910 446.922211 -79.444473
v -417.583435 346.347076 -79.444473
v -405.732910 346.347076 -79.444473
v -417.583435 176.738632 -354.077026
v -405.732910 176.738632 -354.077026
v -315.343842 285.186981 -78.964035
v -417.583435 446.922211 -67.066017
v -405.732910 446.922211 -67.066017
v -417.583435 346.347076 -67.066017
v -405.732910 346.347076 -67.066017
v -214.868927 346.347076 -79.444473
v -214.868927 446.922211 -79.444473
v -214.868927 346.347076 -67.066017
v -214.868927 446.922211 -67.066017
v -417.583435 284.877014 -79.444473
v -405.732910 284.877014 -79.444473
v -417.583435 115.268585 -354.077026
v -405.732910 115.268585 -354.077026
v -536.097290 284.877014 -79.444473
v -536.097290 115.268585 -354.077026
vt 0.787649 0.225798
vt 0.797349 0.238872
vt 0.417468 0.240285
vt 0.417468 0.472115
vt 0.417468 0.240509
vt 0.521320 0.356311
vt 0.001046 0.134148
vt 0.055722 0.140013
vt 0.053837 0.146280
vt 0.198939 0.238607
vt 0.205357 0.232547
vt 0.211076 0.240084
vt 0.148001 0.017369
vt 0.078407 0.064996
vt 0.066831 0.303590
vt 0.265163 0.228806
vt 0.280734 0.227500
vt 0.280609 0.241237
vt 0.266429 0.000112
vt 0.202254 0.013138
vt 0.215996 0.231572
vt 0.265941 0.240554
vt 0.262103 0.681599
vt 0.244439 0.690365
vt 0.135725 0.952236
vt 0.000112 0.894253
vt 0.417245 0.155690
vt 0.382685 0.675166
vt 0.120713 0.620517
vt 0.152811 0.146529
vt 0.260271 0.704286
vt 0.382864 0.695387
vt 0.382391 0.710452
vt 0.266897 0.692888
vt 0.417468 0.223860
vt 0.464151 0.149887
vt 0.802414 0.173970
vt 0.821972 0.163119
vt 0.465660 0.130935
vt 0.521320 0.240508
vt 0.521320 0.472114
vt 0.000112 0.145367
vt 0.202543 0.245763
vt 0.001184 0.133005
vt 0.216109 0.241418
vt 0.305295 0.999888
vt 0.152778 0.959263
vt 0.477477 0.000112
vt 0.833789 0.032296
vn 0.000000 0.850800 -0.525500
vn -0.000000 -0.004400 -1.000000
vn 0.000000 0.000000 -1.000000
vn 0.003900 -0.999600 0.028500
vn 1.000000 0.001200 -0.006200
vn -1.000000 -0.000000 0.000000
vn 0.000000 -0.846400 -0.532600
vn 0.000000 0.999600 -0.028500
vn 0.000000 0.843200 -0.537600
vn 1.000000 -0.000000 0.000000
vn 0.000000 0.000000 1.000000
vn 0.000000 1.000000 0.000000
vn 0.000000 -0.850800 0.525500
vn 0.000000 -0.999500 0.032800
vn 1.000000 0.000000 -0.005800
vn 1.000000 0.000000 -0.002800
vn 0.999900 0.000200 -0.010700
vn 1.000000 0.002400 -0.004300
vn -0.000100 -0.846400 -0.532600
s off
f 79/56/39 78/57/39 76/58/39
f 99/59/40 98/60/40 108/61/40
f 87/62/41 89/63/41 88/64/41
f 92/65/42 93/66/42 91/67/42
f 83/68/43 93/66/43 82/69/43
f 88/64/44 92/65/44 80/70/44
f 88/64/45 89/63/45 93/66/45
f 101/71/46 94/72/46 95/73/46
f 96/74/41 101/71/41 85/75/41
f 91/76/46 101/71/46 100/77/46
f 95/73/47 102/78/47 103/79/47
f 103/79/41 114/80/41 113/81/41
f 95/73/44 106/82/44 104/83/44
f 105/84/48 107/85/48 100/77/48
f 110/86/49 111/87/49 112/88/49
f 104/83/44 111/87/44 109/89/44
f 103/79/50 109/89/50 110/86/50
f 79/56/48 77/90/48 118/91/48
f 79/56/41 120/92/41 119/93/41
f 118/91/51 117/94/51 119/93/51
f 77/90/39 79/56/39 76/58/39
f 98/60/40 97/95/40 108/61/40
f 108/61/40 81/96/40 99/59/40
f 86/97/41 87/62/41 88/64/41
f 90/98/52 92/65/52 91/67/52
f 87/62/49 84/99/49 82/69/49
f 93/66/53 85/75/53 91/76/53
f 89/63/54 87/62/54 82/69/54
f 93/66/55 83/68/55 85/75/55
f 82/69/56 93/66/56 89/63/56
f 80/70/44 86/97/44 88/64/44
f 92/65/44 90/98/44 80/70/44
f 92/65/57 88/64/57 93/66/57
f 100/77/46 101/71/46 95/73/46
f 101/71/41 96/74/41 94/72/41
f 101/71/41 91/76/41 85/75/41
f 93/100/46 91/76/46 100/77/46
f 100/77/47 95/73/47 103/79/47
f 105/84/41 103/79/41 113/81/41
f 102/78/44 95/73/44 104/83/44
f 103/79/48 105/84/48 100/77/48
f 115/101/49 116/102/49 110/86/49
f 110/86/49 112/88/49 115/101/49
f 110/86/49 109/89/49 111/87/49
f 102/78/44 104/83/44 109/89/44
f 116/102/50 114/80/50 103/79/50
f 103/79/50 110/86/50 116/102/50
f 103/79/50 102/78/50 109/89/50
f 120/92/48 79/56/48 118/91/48
f 78/57/41 79/56/41 119/93/41
f 119/93/51 120/92/51 118/91/51
f 121/103/51 122/104/51 119/93/51
f 119/93/51 117/94/51 121/103/51
o stairs.2ndSet_Cube.016
v -417.491547 205.527679 -358.668518
v -537.729492 205.527679 -357.295776
v -417.491547 222.661407 -358.668518
v -417.491547 222.661407 -328.800232
v -537.729492 222.661407 -328.113892
v -537.729492 222.661407 -357.295776
v -417.491547 239.555801 -328.800232
v -417.491547 239.555801 -298.931946
v -537.729492 239.555801 -298.932007
v -537.729492 239.555801 -328.113892
v -537.757507 256.626892 -271.799561
v -537.757507 256.495819 -299.295990
v -417.519531 256.495819 -299.295929
v -417.519531 256.757935 -271.799500
v -417.603851 273.935547 -271.922180
v -417.603851 274.197632 -244.425751
v -537.841797 273.935547 -244.425812
v -537.841797 273.804474 -271.922241
v -537.959900 290.754578 -217.049835
v -537.959900 290.623535 -244.546265
v -417.721954 290.885651 -244.546204
v -417.721954 291.147766 -217.049774
v -417.883209 308.980499 -217.177399
v -417.883209 309.242615 -189.680969
v -538.121155 308.718384 -189.681030
v -538.121155 308.587311 -217.177460
v -417.946014 325.706390 -189.229813
v -417.946045 325.706390 -161.733383
v -538.183960 325.182159 -189.229874
v -538.183960 325.313232 -161.733444
v -538.098511 342.181366 -134.276840
v -538.098511 342.050293 -161.773270
v -417.860596 342.443481 -134.276779
v -417.860596 342.443481 -161.773209
v -537.981812 359.550446 -106.821442
v -537.981812 359.419373 -134.317886
v -417.743896 359.681519 -134.317825
v -417.743896 359.681519 -106.821396
v -537.822937 376.689575 -79.365486
v -417.585022 376.689575 -79.365456
v -417.585022 376.689575 -106.861877
v -537.822937 376.558502 -106.861923
vt 0.997032 0.267933
vt 0.958949 0.267517
vt 0.961866 0.000251
vt 0.894084 0.267550
vt 0.895474 0.000285
vt 0.654563 0.000401
vt 0.654700 0.267665
vt 0.593581 0.267696
vt 0.556345 0.000632
vt 0.556485 0.267898
vt 0.495365 0.267929
vt 0.455583 0.000912
vt 0.455725 0.268179
vt 0.394605 0.268210
vt 0.357852 0.000943
vt 0.357996 0.268210
vt 0.296876 0.268241
vt 0.259531 0.000684
vt 0.259674 0.267950
vt 0.198554 0.267981
vt 0.160095 0.000394
vt 0.160238 0.267659
vt 0.099118 0.267691
vt 0.061171 0.000052
vt 0.061312 0.267317
vt 0.000193 0.267349
vt 0.296733 0.000975
vt 0.198412 0.000716
vt 0.098976 0.000426
vt 0.394461 0.000943
vt 0.692883 0.267500
vt 0.856532 0.267355
vt 0.857922 0.000090
vt 0.791666 0.267388
vt 0.791531 0.000123
vt 0.753868 0.000204
vt 0.754003 0.267469
vt 0.999948 0.000667
vt 0.593441 0.000431
vt 0.495224 0.000663
vt 0.000052 0.000084
vt 0.692746 0.000235
vn -0.011400 0.000000 -0.999900
vn 0.000000 1.000000 0.000000
vn -0.001100 1.000000 -0.004800
vn -0.002200 1.000000 -0.004800
vn -0.003300 1.000000 -0.004800
vn -0.004400 1.000000 -0.004800
vn 0.000000 -0.002400 -1.000000
vn -0.000100 0.027400 -0.999600
vn 0.000000 -0.007200 -1.000000
vn 0.000000 -0.007100 -1.000000
vn -0.005700 0.000000 -1.000000
vn 0.000000 1.000000 -0.004800
vn 0.000000 -0.021500 -0.999800
vn -0.002200 1.000000 -0.009500
vn -0.003300 0.999900 -0.009500
vn -0.004400 0.999900 -0.009500
vn -0.003300 1.000000 0.000000
vn -0.002200 1.000000 0.000000
vn -0.001100 1.000000 0.000000
vn -0.001100 1.000000 -0.009500
s off
f 124/105/58 128/106/58 125/107/58
f 128/106/59 127/108/59 126/109/59
f 137/110/60 140/111/60 139/112/60
f 143/113/61 142/114/61 141/115/61
f 145/116/62 148/117/62 147/118/62
f 149/119/63 151/120/63 152/121/63
f 156/122/62 154/123/62 153/124/62
f 159/125/61 158/126/61 157/127/61
f 163/128/60 164/129/60 161/130/60
f 154/123/64 156/122/64 150/131/64
f 158/126/64 159/125/64 155/132/64
f 164/129/64 163/128/64 160/133/64
f 151/120/65 149/119/65 146/134/65
f 141/115/66 148/117/66 145/116/66
f 139/112/66 142/114/66 143/113/66
f 133/135/67 140/111/67 137/110/67
f 132/136/68 129/137/68 126/109/68
f 132/136/59 131/138/59 130/139/59
f 135/140/69 134/141/69 133/135/69
f 131/138/70 134/141/70 135/140/70
f 123/142/58 124/105/58 125/107/58
f 125/107/59 128/106/59 126/109/59
f 138/143/71 137/110/71 139/112/71
f 144/144/72 143/113/72 141/115/72
f 146/134/73 145/116/73 147/118/73
f 150/131/74 149/119/74 152/121/74
f 155/132/75 156/122/75 153/124/75
f 160/133/76 159/125/76 157/127/76
f 162/145/59 163/128/59 161/130/59
f 152/121/64 154/123/64 150/131/64
f 153/124/64 158/126/64 155/132/64
f 157/127/64 164/129/64 160/133/64
f 147/118/65 151/120/65 146/134/65
f 144/144/66 141/115/66 145/116/66
f 138/143/66 139/112/66 143/113/66
f 136/146/67 133/135/67 137/110/67
f 127/108/68 132/136/68 126/109/68
f 129/137/59 132/136/59 130/139/59
f 136/146/77 135/140/77 133/135/77
f 130/139/70 131/138/70 135/140/70
o stairs.1stSet_Cube.013
v -213.360519 36.841499 -78.846542
v -213.360519 205.558426 -359.190643
v -333.694000 205.527679 -358.668518
v -333.642212 36.841499 -78.846558
v -213.360519 54.304531 -106.342979
v -213.360519 54.304531 -78.846542
v -333.642212 54.304531 -106.342987
v -333.642212 54.304531 -78.846558
v -213.360519 70.787888 -133.839417
v -213.360519 70.787888 -106.342979
v -333.642212 70.787888 -133.839417
v -333.642212 70.787888 -106.342987
v -213.360519 88.168716 -161.335846
v -213.360519 88.168716 -133.839417
v -333.642212 88.168716 -161.335846
v -333.642212 88.168716 -133.839417
v -213.360519 104.632256 -188.832275
v -213.360519 104.632256 -161.335846
v -333.642212 104.632256 -188.832275
v -333.642212 104.632256 -161.335846
v -213.360519 121.984566 -216.328705
v -213.360519 121.984566 -188.832275
v -333.642212 121.984566 -216.328705
v -333.642212 121.984566 -188.832275
v -213.360519 139.452408 -243.825134
v -213.360519 139.452408 -216.328705
v -333.642212 139.452408 -243.825134
v -333.642212 139.452408 -216.328705
v -213.360519 156.127533 -271.321564
v -213.360519 156.127533 -243.825134
v -333.642212 156.127533 -271.321564
v -333.642212 156.127533 -243.825134
v -213.360519 173.743500 -298.817993
v -213.360519 173.743500 -271.321564
v -333.642212 173.743500 -298.817993
v -333.642212 173.743500 -271.321564
v -213.360519 173.857849 -298.879303
v -333.642212 173.857849 -298.879303
v -213.360519 190.507828 -329.049011
v -213.360519 191.032059 -299.180725
v -333.642212 190.507828 -329.049011
v -333.642212 191.032059 -299.180725
v -213.360519 206.082657 -329.322357
v -333.642212 206.082657 -329.322357
vt 0.374991 0.337072
vt 0.297956 0.337072
vt 0.297956 0.000088
vt 0.126047 0.000088
vt 0.126047 0.337072
vt 0.049012 0.337072
vt 0.749772 0.337072
vt 0.749773 0.000088
vt 0.796490 0.000088
vt 0.546765 0.337072
vt 0.498150 0.337072
vt 0.498150 0.000088
vt 0.249262 0.000088
vt 0.249262 0.337072
vt 0.172227 0.337072
vt 0.421116 0.000088
vt 0.421116 0.337072
vt 0.672738 0.337072
vt 0.672738 0.000088
vt 0.623800 0.000088
vt 0.873525 0.337072
vt 0.796490 0.337072
vt 0.000233 0.469063
vt 0.337217 0.469063
vt 0.337217 0.512704
vt 0.999912 0.337072
vt 0.922878 0.337072
vt 0.922878 0.000088
vt 0.000233 0.385370
vt 0.337217 0.385370
vt 0.337217 0.337247
vt 0.337217 0.596396
vt 0.000088 0.594936
vt 0.000088 0.000088
vt 0.049013 0.000088
vt 0.873525 0.000088
vt 0.546765 0.000088
vt 0.623800 0.337072
vt 0.374991 0.000088
vt 0.172227 0.000088
vt 0.000233 0.512704
vt 0.999912 0.000088
vt 0.000233 0.337247
vt 0.000088 0.337072
vn 0.000000 1.000000 0.000000
vn 0.000000 0.000000 1.000000
vn 0.000000 0.017500 0.999800
vn 0.000000 0.999800 -0.017500
vn -0.000300 0.999800 -0.017500
vn 0.000000 0.999800 -0.018900
s off
f 179/147/78 180/148/78 178/149/78
f 169/150/78 171/151/78 172/152/78
f 191/153/79 189/154/79 194/155/79
f 188/156/79 183/157/79 181/158/79
f 173/159/78 175/160/78 176/161/78
f 182/162/79 184/163/79 179/147/79
f 191/153/78 192/164/78 190/165/78
f 185/166/79 190/165/79 192/164/79
f 195/167/78 196/168/78 194/155/78
f 180/148/79 175/160/79 173/159/79
f 205/169/80 203/170/80 207/171/80
f 199/172/78 200/173/78 198/174/78
f 205/169/81 206/175/81 204/176/81
f 201/177/80 204/176/80 206/175/80
f 207/171/82 166/178/82 167/179/82
f 165/180/79 170/181/79 172/152/79
f 195/167/79 193/182/79 198/174/79
f 186/183/78 185/166/78 187/184/78
f 176/161/79 171/151/79 169/150/79
f 183/157/78 184/163/78 182/162/78
f 177/185/78 179/147/78 178/149/78
f 170/181/78 169/150/78 172/152/78
f 196/168/79 191/153/79 194/155/79
f 186/183/79 188/156/79 181/158/79
f 174/186/78 173/159/78 176/161/78
f 177/185/79 182/162/79 179/147/79
f 189/154/78 191/153/78 190/165/78
f 187/184/79 185/166/79 192/164/79
f 193/182/78 195/167/78 194/155/78
f 178/149/79 180/148/79 173/159/79
f 208/187/80 205/169/80 207/171/80
f 197/188/78 199/172/78 198/174/78
f 203/170/81 205/169/81 204/176/81
f 202/189/80 201/177/80 206/175/80
f 208/187/83 207/171/83 167/179/83
f 168/190/79 165/180/79 172/152/79
f 200/173/79 195/167/79 198/174/79
f 188/156/78 186/183/78 187/184/78
f 174/186/79 176/161/79 169/150/79
f 181/158/78 183/157/78 182/162/78
o stairs.floor_Cube.011
v -477.610535 205.527679 -518.903381
v -537.729492 205.527679 -518.903442
v -537.729492 205.527679 -489.018402
v -333.694000 205.527679 -518.903381
v -417.491547 205.527679 -518.903381
v -273.553162 205.527679 -518.903381
v -213.412308 205.527679 -489.583435
v -213.360519 205.558426 -359.190643
v -417.491547 205.527679 -358.668518
v -333.694000 205.527679 -358.668518
v -213.412308 205.527679 -518.903381
v -537.815674 377.751953 159.069946
v -417.577759 377.751953 159.069977
v -213.282272 377.957703 159.062958
v -213.289536 376.895325 -79.372467
v -537.729492 205.527679 -357.295776
v -537.822937 376.689575 -79.365486
v -417.585022 376.689575 -79.365456
vt 0.660154 0.999873
vt 0.509896 0.999873
vt 0.509896 0.599537
vt 0.150330 0.999873
vt 0.000127 0.999873
vt 0.000127 0.925207
vt 0.300533 0.595848
vt 0.000134 0.000132
vt 0.300540 0.000127
vt 0.810541 0.600841
vt 0.810412 0.926619
vt 0.810412 0.999873
vt 0.300533 0.999873
vt 0.300533 0.599537
vt 0.000127 0.596107
vt 0.810952 0.595854
vt 0.810959 0.000132
vt 0.000127 0.595854
vn 0.000000 1.000000 0.000000
vn 0.000000 1.000000 -0.004500
vn -0.000300 1.000000 -0.000200
vn -0.001000 1.000000 -0.004500
s off
f 214/191/84 212/192/84 218/193/84
f 209/194/84 210/195/84 211/196/84
f 226/197/85 220/198/85 221/199/85
f 218/193/86 216/200/86 215/201/86
f 215/201/84 219/202/84 214/191/84
f 218/193/84 212/192/84 213/203/84
f 213/203/84 217/204/84 218/193/84
f 218/193/84 215/201/84 214/191/84
f 209/194/84 217/204/84 213/203/84
f 217/204/84 211/196/84 224/205/84
f 211/196/84 217/204/84 209/194/84
f 221/199/87 223/206/87 226/197/87
f 223/206/87 221/199/87 222/207/87
f 226/197/85 225/208/85 220/198/85
o stairs.cageArea_Cube.010
v -417.439758 35.793037 -358.554565
v -417.491547 199.938065 -358.668518
v -346.365936 276.423157 -346.830597
v -417.583435 276.423157 -346.830597
v -417.583435 26.277863 -346.830597
v -346.365936 33.520523 -346.830597
v -405.732910 276.423157 -346.830597
v -537.367004 36.802177 -114.535614
v -417.128998 36.891045 -115.041168
v -537.800659 198.989212 -349.228516
v -537.489929 204.628357 -114.648285
v -417.251923 204.717224 -115.153839
vt 0.990109 0.020006
vt 0.794650 0.690171
vt 0.794622 0.000126
vt 0.782383 0.980582
vt 0.451261 0.999874
vt 0.463946 0.330590
vt 0.002693 0.330591
vt 0.002690 0.000126
vt 0.463943 0.000126
vt 0.990110 0.686759
vt 0.794622 0.686760
vt 0.794370 0.335787
vt 0.000126 0.999864
vn 0.000000 0.000000 1.000000
vn 0.009400 -0.999800 0.019600
vn -0.004200 -0.000700 -1.000000
vn -1.000000 -0.000700 0.001000
vn 0.000800 -0.999700 0.024000
vn -1.000000 -0.000300 0.001300
s off
f 232/209/88 233/210/88 231/211/88
f 236/212/89 228/213/89 238/214/89
f 235/215/90 234/216/90 237/217/90
f 235/215/91 238/214/91 228/213/91
f 233/210/88 232/209/88 229/218/88
f 233/210/88 230/219/88 231/211/88
f 237/220/92 236/212/92 238/214/92
f 238/214/90 235/215/90 237/217/90
f 227/221/93 235/215/93 228/213/93
o walkway.floor_Cube.006
v 351.204834 21.563591 -518.789490
v -561.720764 21.563591 -518.789551
v 351.204834 36.841499 -518.789429
v -561.720764 35.793037 -518.789490
v 351.204773 36.841244 518.887085
v -561.720764 36.841244 518.887024
v -561.720764 21.563335 518.887024
v 351.204834 21.563335 518.887085
vt 0.015521 0.983466
vt 0.840514 0.899667
vt 0.861170 0.917641
vt 0.020749 0.100784
vt 0.846043 0.016549
vt 0.000093 0.999907
vt 0.861485 0.000093
vt 0.000093 0.082815
vn -0.000000 0.000000 1.000000
vn -0.001100 1.000000 -0.001000
vn 1.000000 0.000000 0.000000
vn -1.000000 -0.000000 0.000000
vn 0.000000 0.000000 -1.000000
vn -0.000000 1.000000 0.000000
s off
f 243/222/94 244/223/94 245/224/94
f 241/225/95 242/226/95 244/223/95
f 241/225/96 243/222/96 246/227/96
f 242/226/97 240/228/97 245/224/97
f 239/229/98 240/228/98 242/226/98
f 246/227/94 243/222/94 245/224/94
f 243/222/99 241/225/99 244/223/99
f 239/229/96 241/225/96 246/227/96
f 244/223/97 242/226/97 245/224/97
f 241/225/98 239/229/98 242/226/98
o walkway.pillars_Cube.005
v -154.247971 36.841499 450.999115
v -154.247971 36.841499 511.395020
v -213.765381 36.841499 450.999115
v -213.765381 36.841499 472.628235
v -213.765381 36.841499 511.395020
v -154.247971 317.963043 450.999115
v -154.247971 317.963043 511.395020
v -213.765381 317.963043 450.999115
v -213.765381 317.963043 472.628235
v -213.765381 317.963043 511.395020
v -468.217407 36.841499 450.999115
v -468.217407 36.841499 472.628235
v -468.217407 36.841499 511.395020
v -468.217407 317.963043 450.999115
v -468.217407 317.963043 472.628235
v -468.217407 317.963043 511.395020
v -528.662598 36.841499 450.999115
v -528.662598 36.841499 472.628235
v -528.662598 36.841499 511.395020
v -528.662598 317.963043 450.999115
v -528.662598 317.963043 472.628235
v -528.662598 317.963043 511.395020
vt 0.376340 0.000108
vt 0.501818 0.000108
vt 0.501818 0.583689
vt 0.999892 0.000108
vt 0.999892 0.583689
vt 0.876339 0.583689
vt 0.876339 0.000108
vt 0.750964 0.583689
vt 0.750963 0.000108
vt 0.627411 0.583689
vt 0.331440 0.000108
vt 0.331440 0.583689
vt 0.546934 0.583689
vt 0.546935 0.000108
vt 0.045008 0.000108
vt 0.125485 0.000108
vt 0.045009 0.583689
vt 0.125485 0.583689
vt 0.250963 0.000108
vt 0.376340 0.583689
vt 0.627411 0.000108
vt 0.250963 0.583689
vt 0.502034 0.583689
vt 0.502035 0.000108
vt 0.000109 0.583689
vt 0.000108 0.000108
vn 0.000000 0.000000 -1.000000
vn 1.000000 0.000000 0.000000
vn 0.000000 0.000000 1.000000
vn -1.000000 0.000000 0.000000
s off
f 257/230/100 263/231/100 266/232/100
f 249/233/100 254/234/100 252/235/100
f 247/236/101 252/235/101 253/237/101
f 248/238/102 253/237/102 256/239/102
f 258/240/101 257/230/101 261/241/101
f 256/239/103 255/242/103 250/243/103
f 264/244/103 265/245/103 267/246/103
f 268/247/102 265/245/102 259/248/102
f 260/249/100 257/230/100 266/232/100
f 247/236/100 249/233/100 252/235/100
f 248/238/101 247/236/101 253/237/101
f 251/250/102 248/238/102 256/239/102
f 261/241/101 262/251/101 259/248/101
f 257/230/101 260/249/101 261/241/101
f 261/241/101 259/248/101 258/240/101
f 254/252/103 249/253/103 250/243/103
f 250/243/103 251/250/103 256/239/103
f 250/243/103 255/242/103 254/252/103
f 267/246/103 266/254/103 263/255/103
f 265/245/103 268/247/103 267/246/103
f 267/246/103 263/255/103 264/244/103
f 262/251/102 268/247/102 259/248/102
#o walkway.fountain_Cube.003
v -546.175049 72.314163 136.563461
v -546.175049 163.063324 136.563461
v -546.175049 72.314163 94.036911
v -546.175049 163.063324 94.036911
v -523.975708 72.314163 136.563461
v -529.835754 156.039307 129.539444
v -523.975708 72.314163 94.036911
v -529.835754 156.039307 101.060928
v -529.835754 124.712769 101.060928
v -529.835754 124.712769 129.539444
v -505.895691 117.688751 94.036911
v -505.895691 72.314163 94.036911
v -505.895691 117.688751 136.563461
v -505.895691 72.314163 136.563461
v -505.895691 105.278130 136.563461
v -505.895691 105.278130 94.036911
v -483.711182 117.688751 136.563461
v -483.711182 117.688751 94.036911
v -483.711182 105.278130 136.563461
v -483.711182 105.278130 94.036911
v -523.975708 163.063324 94.036911
v -523.975708 163.063324 136.563461
v -523.975708 117.688751 94.036911
v -523.975708 117.688751 136.563461
vn 0.000000 0.000000 -1.000000
vn 0.000000 -1.000000 0.000000
vn 0.000000 0.000000 1.000000
vn 0.000000 1.000000 0.000000
vn 1.000000 0.000000 0.000000
vn 0.767900 -0.640600 0.000000
vn 0.767900 0.000000 0.640600
vn 0.767900 0.000000 -0.640600
vn 0.767900 0.640600 0.000000
s off
#f 272//104 289//104 291//104
#f 275//105 280//105 282//105
#f 292//106 270//106 269//106
#f 271//105 275//105 273//105
#f 289//107 272//107 270//107
#f 274//108 278//108 277//108
#f 283//108 282//108 280//108
#f 275//104 291//104 284//104
#f 292//106 273//106 283//106
#f 285//108 287//108 288//108
#f 284//105 288//105 287//105
#f 283//106 287//106 285//106
#f 279//104 286//104 288//104
#f 279//107 281//107 286//107
#f 276//109 289//109 290//109
#f 277//110 291//110 289//110
#f 274//111 290//111 292//111
#f 278//112 292//112 291//112
#f 291//104 271//104 272//104
#f 271//104 291//104 275//104
#f 273//105 275//105 282//105
#f 270//106 292//106 290//106
#f 292//106 269//106 273//106
#f 269//105 271//105 273//105
#f 290//107 289//107 270//107
#f 276//108 274//108 277//108
#f 284//108 283//108 280//108
#f 284//104 280//104 275//104
#f 291//104 279//104 284//104
#f 283//106 281//106 292//106
#f 273//106 282//106 283//106
#f 286//108 285//108 288//108
#f 283//105 284//105 287//105
#f 281//106 283//106 285//106
#f 284//104 279//104 288//104
#f 281//107 279//107 291//107
#f 281//107 285//107 286//107
#f 291//107 292//107 281//107
#f 274//109 276//109 290//109
#f 276//110 277//110 289//110
#f 278//111 274//111 292//111
#f 277//112 278//112 291//112
#o walkway.fireExt_Cube.002
v -198.952179 98.823303 176.311737
v -198.952179 161.501434 176.311737
v -198.952179 98.823303 151.425888
v -198.952179 161.501434 151.425888
v -167.628418 98.823303 176.311737
v -167.628418 161.501434 176.311737
v -167.628418 98.823303 151.425888
v -167.628418 161.501434 151.425888
vn -1.000000 0.000000 0.000000
vn 0.000000 0.000000 -1.000000
vn 1.000000 0.000000 0.000000
vn 0.000000 0.000000 1.000000
vn 0.000000 -1.000000 0.000000
vn 0.000000 1.000000 0.000000
s off
#f 296//113 295//113 293//113
#f 300//114 299//114 295//114
#f 298//115 297//115 299//115
#f 294//116 293//116 297//116
#f 295//117 299//117 297//117
#f 300//118 296//118 294//118
#f 294//113 296//113 293//113
#f 296//114 300//114 295//114
#f 300//115 298//115 299//115
#f 298//116 294//116 297//116
#f 293//117 295//117 297//117
#f 298//118 300//118 294//118
