# Blender v2.75 (sub 0) OBJ File: 'gameArea2Bigger.blend'
# www.blender.org
mtllib bigCubes.mtl
o test_Cube.050
v -36801.875000 -8274.679688 -145.578125
v 30490.187500 -8274.679688 21717.484375
v -11092.437500 -8274.679688 -35520.847656
v -11092.437500 -8274.679688 35229.695312
v -5658.343750 -16595.708984 4256.195312
v -5658.343750 -16595.708984 -4547.343750
v 30490.187500 -8274.679688 -22008.636719
v 2711.968750 -16595.708984 6976.781250
v 7888.156250 -16595.708984 -145.578125
v 2711.968750 -16595.708984 -7267.937500
v 28323.843750 -15805.103516 -145.578125
v 9025.281250 -15805.103516 -26702.371094
v -22190.250000 -15805.103516 -16558.453125
v -22190.250000 -15805.103516 16267.304688
v 9025.281250 -15805.103516 26411.218750
v 2105.031250 -1712.621094 5635.687500
v 7028.531250 -1922.843750 -120.875000
v -3999.312500 -1810.707031 -3198.265625
v 2289.093750 -2026.890625 -6444.046875
v -4389.343750 -1826.257812 3239.945312
v 59814.781250 -8274.679688 -145.578125
v 127106.859375 -8274.679688 21717.484375
v 85524.203125 -8274.679688 -35520.847656
v 85524.203125 -8274.679688 35229.695312
v 90958.312500 -16595.708984 4256.195312
v 90958.312500 -16595.708984 -4547.343750
v 127106.859375 -8274.679688 -22008.636719
v 99328.640625 -16595.708984 6976.781250
v 104504.796875 -16595.708984 -145.578125
v 99328.640625 -16595.708984 -7267.937500
v 124940.500000 -15805.103516 -145.578125
v 105641.953125 -15805.103516 -26702.371094
v 74426.421875 -15805.103516 -16558.453125
v 74426.421875 -15805.103516 16267.304688
v 105641.953125 -15805.103516 26411.218750
v 98721.718750 -1712.621094 5635.687500
v 103645.218750 -1922.843750 -120.875000
v 92617.343750 -1810.707031 -3198.265625
v 98905.765625 -2026.890625 -6444.046875
v 92227.312500 -1826.257812 3239.945312
v 161357.656250 -8274.679688 -145.578125
v 228649.750000 -8274.679688 21717.484375
v 187067.093750 -8274.679688 -35520.847656
v 187067.093750 -8274.679688 35229.695312
v 192501.187500 -16595.708984 4256.195312
v 192501.187500 -16595.708984 -4547.343750
v 228649.750000 -8274.679688 -22008.636719
v 200871.531250 -16595.708984 6976.781250
v 206047.687500 -16595.708984 -145.578125
v 200871.531250 -16595.708984 -7267.937500
v 226483.375000 -15805.103516 -145.578125
v 207184.828125 -15805.103516 -26702.371094
v 175969.296875 -15805.103516 -16558.453125
v 175969.296875 -15805.103516 16267.304688
v 207184.828125 -15805.103516 26411.218750
v 200264.593750 -1712.621094 5635.687500
v 205188.093750 -1922.843750 -120.875000
v 194160.218750 -1810.707031 -3198.265625
v 200448.656250 -2026.890625 -6444.046875
v 193770.187500 -1826.257812 3239.945312
v 260908.359375 -8274.679688 -145.578125
v 328200.437500 -8274.679688 21717.484375
v 286617.812500 -8274.679688 -35520.847656
v 286617.812500 -8274.679688 35229.695312
v 292051.906250 -16595.708984 4256.195312
v 292051.906250 -16595.708984 -4547.343750
v 328200.437500 -8274.679688 -22008.636719
v 300422.218750 -16595.708984 6976.781250
v 305598.406250 -16595.708984 -145.578125
v 300422.218750 -16595.708984 -7267.937500
v 326034.093750 -15805.103516 -145.578125
v 306735.531250 -15805.103516 -26702.371094
v 275520.000000 -15805.103516 -16558.453125
v 275520.000000 -15805.103516 16267.304688
v 306735.531250 -15805.103516 26411.218750
v 299815.312500 -1712.621094 5635.687500
v 304738.812500 -1922.843750 -120.875000
v 293710.937500 -1810.707031 -3198.265625
v 299999.375000 -2026.890625 -6444.046875
v 293320.906250 -1826.257812 3239.945312
v 356496.312500 -8274.679688 -145.578125
v 423788.375000 -8274.679688 21717.484375
v 382205.750000 -8274.679688 -35520.847656
v 382205.750000 -8274.679688 35229.695312
v 387639.843750 -16595.708984 4256.195312
v 387639.843750 -16595.708984 -4547.343750
v 423788.375000 -8274.679688 -22008.636719
v 396010.187500 -16595.708984 6976.781250
v 401186.343750 -16595.708984 -145.578125
v 396010.187500 -16595.708984 -7267.937500
v 421622.031250 -15805.103516 -145.578125
v 402323.468750 -15805.103516 -26702.371094
v 371107.937500 -15805.103516 -16558.453125
v 371107.937500 -15805.103516 16267.304688
v 402323.468750 -15805.103516 26411.218750
v 395403.250000 -1712.621094 5635.687500
v 400326.750000 -1922.843750 -120.875000
v 389298.875000 -1810.707031 -3198.265625
v 395587.312500 -2026.890625 -6444.046875
v 388908.843750 -1826.257812 3239.945312
v -36801.875000 -8274.679688 -89321.632812
v 30490.187500 -8274.679688 -67458.570312
v -11092.437500 -8274.679688 -124696.906250
v -11092.437500 -8274.679688 -53946.359375
v -5658.343750 -16595.708984 -84919.859375
v -5658.343750 -16595.708984 -93723.398438
v 30490.187500 -8274.679688 -111184.687500
v 2711.968750 -16595.708984 -82199.273438
v 7888.156250 -16595.708984 -89321.632812
v 2711.968750 -16595.708984 -96443.992188
v 28323.843750 -15805.103516 -89321.632812
v 9025.281250 -15805.103516 -115878.421875
v -22190.250000 -15805.103516 -105734.507812
v -22190.250000 -15805.103516 -72908.750000
v 9025.281250 -15805.103516 -62764.835938
v 2105.031250 -1712.621094 -83540.367188
v 7028.531250 -1922.843750 -89296.929688
v -3999.312500 -1810.707031 -92374.320312
v 2289.093750 -2026.890625 -95620.101562
v -4389.343750 -1826.257812 -85936.109375
v 59814.781250 -8274.679688 -89321.632812
v 127106.859375 -8274.679688 -67458.570312
v 85524.203125 -8274.679688 -124696.906250
v 85524.203125 -8274.679688 -53946.359375
v 90958.312500 -16595.708984 -84919.859375
v 90958.312500 -16595.708984 -93723.398438
v 127106.859375 -8274.679688 -111184.687500
v 99328.640625 -16595.708984 -82199.273438
v 104504.796875 -16595.708984 -89321.632812
v 99328.640625 -16595.708984 -96443.992188
v 124940.500000 -15805.103516 -89321.632812
v 105641.953125 -15805.103516 -115878.421875
v 74426.421875 -15805.103516 -105734.507812
v 74426.421875 -15805.103516 -72908.750000
v 105641.953125 -15805.103516 -62764.835938
v 98721.718750 -1712.621094 -83540.367188
v 103645.218750 -1922.843750 -89296.929688
v 92617.343750 -1810.707031 -92374.320312
v 98905.765625 -2026.890625 -95620.101562
v 92227.312500 -1826.257812 -85936.109375
v 161357.656250 -8274.679688 -89321.632812
v 228649.750000 -8274.679688 -67458.570312
v 187067.093750 -8274.679688 -124696.906250
v 187067.093750 -8274.679688 -53946.359375
v 192501.187500 -16595.708984 -84919.859375
v 192501.187500 -16595.708984 -93723.398438
v 228649.750000 -8274.679688 -111184.687500
v 200871.531250 -16595.708984 -82199.273438
v 206047.687500 -16595.708984 -89321.632812
v 200871.531250 -16595.708984 -96443.992188
v 226483.375000 -15805.103516 -89321.632812
v 207184.828125 -15805.103516 -115878.421875
v 175969.296875 -15805.103516 -105734.507812
v 175969.296875 -15805.103516 -72908.750000
v 207184.828125 -15805.103516 -62764.835938
v 200264.593750 -1712.621094 -83540.367188
v 205188.093750 -1922.843750 -89296.929688
v 194160.218750 -1810.707031 -92374.320312
v 200448.656250 -2026.890625 -95620.101562
v 193770.187500 -1826.257812 -85936.109375
v 260908.359375 -8274.679688 -89321.632812
v 328200.437500 -8274.679688 -67458.570312
v 286617.812500 -8274.679688 -124696.906250
v 286617.812500 -8274.679688 -53946.359375
v 292051.906250 -16595.708984 -84919.859375
v 292051.906250 -16595.708984 -93723.398438
v 328200.437500 -8274.679688 -111184.687500
v 300422.218750 -16595.708984 -82199.273438
v 305598.406250 -16595.708984 -89321.632812
v 300422.218750 -16595.708984 -96443.992188
v 326034.093750 -15805.103516 -89321.632812
v 306735.531250 -15805.103516 -115878.421875
v 275520.000000 -15805.103516 -105734.507812
v 275520.000000 -15805.103516 -72908.750000
v 306735.531250 -15805.103516 -62764.835938
v 299815.312500 -1712.621094 -83540.367188
v 304738.812500 -1922.843750 -89296.929688
v 293710.937500 -1810.707031 -92374.320312
v 299999.375000 -2026.890625 -95620.101562
v 293320.906250 -1826.257812 -85936.109375
v 356496.312500 -8274.679688 -89321.632812
v 423788.375000 -8274.679688 -67458.570312
v 382205.750000 -8274.679688 -124696.906250
v 382205.750000 -8274.679688 -53946.359375
v 387639.843750 -16595.708984 -84919.859375
v 387639.843750 -16595.708984 -93723.398438
v 423788.375000 -8274.679688 -111184.687500
v 396010.187500 -16595.708984 -82199.273438
v 401186.343750 -16595.708984 -89321.632812
v 396010.187500 -16595.708984 -96443.992188
v 421622.031250 -15805.103516 -89321.632812
v 402323.468750 -15805.103516 -115878.421875
v 371107.937500 -15805.103516 -105734.507812
v 371107.937500 -15805.103516 -72908.750000
v 402323.468750 -15805.103516 -62764.835938
v 395403.250000 -1712.621094 -83540.367188
v 400326.750000 -1922.843750 -89296.929688
v 389298.875000 -1810.707031 -92374.320312
v 395587.312500 -2026.890625 -95620.101562
v 388908.843750 -1826.257812 -85936.109375
v -36801.875000 -8274.679688 -184226.750000
v 30490.187500 -8274.679688 -162363.687500
v -11092.437500 -8274.679688 -219602.015625
v -11092.437500 -8274.679688 -148851.468750
v -5658.343750 -16595.708984 -179824.968750
v -5658.343750 -16595.708984 -188628.500000
v 30490.187500 -8274.679688 -206089.796875
v 2711.968750 -16595.708984 -177104.375000
v 7888.156250 -16595.708984 -184226.750000
v 2711.968750 -16595.708984 -191349.093750
v 28323.843750 -15805.103516 -184226.750000
v 9025.281250 -15805.103516 -210783.531250
v -22190.250000 -15805.103516 -200639.625000
v -22190.250000 -15805.103516 -167813.859375
v 9025.281250 -15805.103516 -157669.937500
v 2105.031250 -1712.621094 -178445.468750
v 7028.531250 -1922.843750 -184202.031250
v -3999.312500 -1810.707031 -187279.421875
v 2289.093750 -2026.890625 -190525.218750
v -4389.343750 -1826.257812 -180841.218750
v 59814.781250 -8274.679688 -184226.750000
v 127106.859375 -8274.679688 -162363.687500
v 85524.203125 -8274.679688 -219602.015625
v 85524.203125 -8274.679688 -148851.468750
v 90958.312500 -16595.708984 -179824.968750
v 90958.312500 -16595.708984 -188628.500000
v 127106.859375 -8274.679688 -206089.796875
v 99328.640625 -16595.708984 -177104.375000
v 104504.796875 -16595.708984 -184226.750000
v 99328.640625 -16595.708984 -191349.093750
v 124940.500000 -15805.103516 -184226.750000
v 105641.953125 -15805.103516 -210783.531250
v 74426.421875 -15805.103516 -200639.625000
v 74426.421875 -15805.103516 -167813.859375
v 105641.953125 -15805.103516 -157669.937500
v 98721.718750 -1712.621094 -178445.468750
v 103645.218750 -1922.843750 -184202.031250
v 92617.343750 -1810.707031 -187279.421875
v 98905.765625 -2026.890625 -190525.218750
v 92227.312500 -1826.257812 -180841.218750
v 161357.656250 -8274.679688 -184226.750000
v 228649.750000 -8274.679688 -162363.687500
v 187067.093750 -8274.679688 -219602.015625
v 187067.093750 -8274.679688 -148851.468750
v 192501.187500 -16595.708984 -179824.968750
v 192501.187500 -16595.708984 -188628.500000
v 228649.750000 -8274.679688 -206089.796875
v 200871.531250 -16595.708984 -177104.375000
v 206047.687500 -16595.708984 -184226.750000
v 200871.531250 -16595.708984 -191349.093750
v 226483.375000 -15805.103516 -184226.750000
v 207184.828125 -15805.103516 -210783.531250
v 175969.296875 -15805.103516 -200639.625000
v 175969.296875 -15805.103516 -167813.859375
v 207184.828125 -15805.103516 -157669.937500
v 200264.593750 -1712.621094 -178445.468750
v 205188.093750 -1922.843750 -184202.031250
v 194160.218750 -1810.707031 -187279.421875
v 200448.656250 -2026.890625 -190525.218750
v 193770.187500 -1826.257812 -180841.218750
v 260908.359375 -8274.679688 -184226.750000
v 328200.437500 -8274.679688 -162363.687500
v 286617.812500 -8274.679688 -219602.015625
v 286617.812500 -8274.679688 -148851.468750
v 292051.906250 -16595.708984 -179824.968750
v 292051.906250 -16595.708984 -188628.500000
v 328200.437500 -8274.679688 -206089.796875
v 300422.218750 -16595.708984 -177104.375000
v 305598.406250 -16595.708984 -184226.750000
v 300422.218750 -16595.708984 -191349.093750
v 326034.093750 -15805.103516 -184226.750000
v 306735.531250 -15805.103516 -210783.531250
v 275520.000000 -15805.103516 -200639.625000
v 275520.000000 -15805.103516 -167813.859375
v 306735.531250 -15805.103516 -157669.937500
v 299815.312500 -1712.621094 -178445.468750
v 304738.812500 -1922.843750 -184202.031250
v 293710.937500 -1810.707031 -187279.421875
v 299999.375000 -2026.890625 -190525.218750
v 293320.906250 -1826.257812 -180841.218750
v 356496.312500 -8274.679688 -184226.750000
v 423788.375000 -8274.679688 -162363.687500
v 382205.750000 -8274.679688 -219602.015625
v 382205.750000 -8274.679688 -148851.468750
v 387639.843750 -16595.708984 -179824.968750
v 387639.843750 -16595.708984 -188628.500000
v 423788.375000 -8274.679688 -206089.796875
v 396010.187500 -16595.708984 -177104.375000
v 401186.343750 -16595.708984 -184226.750000
v 396010.187500 -16595.708984 -191349.093750
v 421622.031250 -15805.103516 -184226.750000
v 402323.468750 -15805.103516 -210783.531250
v 371107.937500 -15805.103516 -200639.625000
v 371107.937500 -15805.103516 -167813.859375
v 402323.468750 -15805.103516 -157669.937500
v 395403.250000 -1712.621094 -178445.468750
v 400326.750000 -1922.843750 -184202.031250
v 389298.875000 -1810.707031 -187279.421875
v 395587.312500 -2026.890625 -190525.218750
v 388908.843750 -1826.257812 -180841.218750
v -36801.875000 -8274.679688 -270491.562500
v 30490.187500 -8274.679688 -248628.515625
v -11092.437500 -8274.679688 -305866.843750
v -11092.437500 -8274.679688 -235116.296875
v -5658.343750 -16595.708984 -266089.812500
v -5658.343750 -16595.708984 -274893.312500
v 30490.187500 -8274.679688 -292354.625000
v 2711.968750 -16595.708984 -263369.187500
v 7888.156250 -16595.708984 -270491.562500
v 2711.968750 -16595.708984 -277613.937500
v 28323.843750 -15805.103516 -270491.562500
v 9025.281250 -15805.103516 -297048.375000
v -22190.250000 -15805.103516 -286904.437500
v -22190.250000 -15805.103516 -254078.687500
v 9025.281250 -15805.103516 -243934.781250
v 2105.031250 -1712.621094 -264710.312500
v 7028.531250 -1922.843750 -270466.875000
v -3999.312500 -1810.707031 -273544.250000
v 2289.093750 -2026.890625 -276790.031250
v -4389.343750 -1826.257812 -267106.062500
v 59814.781250 -8274.679688 -270491.562500
v 127106.859375 -8274.679688 -248628.515625
v 85524.203125 -8274.679688 -305866.843750
v 85524.203125 -8274.679688 -235116.296875
v 90958.312500 -16595.708984 -266089.812500
v 90958.312500 -16595.708984 -274893.312500
v 127106.859375 -8274.679688 -292354.625000
v 99328.640625 -16595.708984 -263369.187500
v 104504.796875 -16595.708984 -270491.562500
v 99328.640625 -16595.708984 -277613.937500
v 124940.500000 -15805.103516 -270491.562500
v 105641.953125 -15805.103516 -297048.375000
v 74426.421875 -15805.103516 -286904.437500
v 74426.421875 -15805.103516 -254078.687500
v 105641.953125 -15805.103516 -243934.781250
v 98721.718750 -1712.621094 -264710.312500
v 103645.218750 -1922.843750 -270466.875000
v 92617.343750 -1810.707031 -273544.250000
v 98905.765625 -2026.890625 -276790.031250
v 92227.312500 -1826.257812 -267106.062500
v 161357.656250 -8274.679688 -270491.562500
v 228649.750000 -8274.679688 -248628.515625
v 187067.093750 -8274.679688 -305866.843750
v 187067.093750 -8274.679688 -235116.296875
v 192501.187500 -16595.708984 -266089.812500
v 192501.187500 -16595.708984 -274893.312500
v 228649.750000 -8274.679688 -292354.625000
v 200871.531250 -16595.708984 -263369.187500
v 206047.687500 -16595.708984 -270491.562500
v 200871.531250 -16595.708984 -277613.937500
v 226483.375000 -15805.103516 -270491.562500
v 207184.828125 -15805.103516 -297048.375000
v 175969.296875 -15805.103516 -286904.437500
v 175969.296875 -15805.103516 -254078.687500
v 207184.828125 -15805.103516 -243934.781250
v 200264.593750 -1712.621094 -264710.312500
v 205188.093750 -1922.843750 -270466.875000
v 194160.218750 -1810.707031 -273544.250000
v 200448.656250 -2026.890625 -276790.031250
v 193770.187500 -1826.257812 -267106.062500
v 260908.359375 -8274.679688 -270491.562500
v 328200.437500 -8274.679688 -248628.515625
v 286617.812500 -8274.679688 -305866.843750
v 286617.812500 -8274.679688 -235116.296875
v 292051.906250 -16595.708984 -266089.812500
v 292051.906250 -16595.708984 -274893.312500
v 328200.437500 -8274.679688 -292354.625000
v 300422.218750 -16595.708984 -263369.187500
v 305598.406250 -16595.708984 -270491.562500
v 300422.218750 -16595.708984 -277613.937500
v 326034.093750 -15805.103516 -270491.562500
v 306735.531250 -15805.103516 -297048.375000
v 275520.000000 -15805.103516 -286904.437500
v 275520.000000 -15805.103516 -254078.687500
v 306735.531250 -15805.103516 -243934.781250
v 299815.312500 -1712.621094 -264710.312500
v 304738.812500 -1922.843750 -270466.875000
v 293710.937500 -1810.707031 -273544.250000
v 299999.375000 -2026.890625 -276790.031250
v 293320.906250 -1826.257812 -267106.062500
v 356496.312500 -8274.679688 -270491.562500
v 423788.375000 -8274.679688 -248628.515625
v 382205.750000 -8274.679688 -305866.843750
v 382205.750000 -8274.679688 -235116.296875
v 387639.843750 -16595.708984 -266089.812500
v 387639.843750 -16595.708984 -274893.312500
v 423788.375000 -8274.679688 -292354.625000
v 396010.187500 -16595.708984 -263369.187500
v 401186.343750 -16595.708984 -270491.562500
v 396010.187500 -16595.708984 -277613.937500
v 421622.031250 -15805.103516 -270491.562500
v 402323.468750 -15805.103516 -297048.375000
v 371107.937500 -15805.103516 -286904.437500
v 371107.937500 -15805.103516 -254078.687500
v 402323.468750 -15805.103516 -243934.781250
v 395403.250000 -1712.621094 -264710.312500
v 400326.750000 -1922.843750 -270466.875000
v 389298.875000 -1810.707031 -273544.250000
v 395587.312500 -2026.890625 -276790.031250
v 388908.843750 -1826.257812 -267106.062500
v -36801.875000 -8274.679688 -367226.093750
v 30490.187500 -8274.679688 -345363.031250
v -11092.437500 -8274.679688 -402601.343750
v -11092.437500 -8274.679688 -331850.781250
v -5658.343750 -16595.708984 -362824.281250
v -5658.343750 -16595.708984 -371627.843750
v 30490.187500 -8274.679688 -389089.156250
v 2711.968750 -16595.708984 -360103.687500
v 7888.156250 -16595.708984 -367226.093750
v 2711.968750 -16595.708984 -374348.437500
v 28323.843750 -15805.103516 -367226.093750
v 9025.281250 -15805.103516 -393782.875000
v -22190.250000 -15805.103516 -383638.937500
v -22190.250000 -15805.103516 -350813.187500
v 9025.281250 -15805.103516 -340669.312500
v 2105.031250 -1712.621094 -361444.812500
v 7028.531250 -1922.843750 -367201.375000
v -3999.312500 -1810.707031 -370278.750000
v 2289.093750 -2026.890625 -373524.562500
v -4389.343750 -1826.257812 -363840.562500
v 59814.781250 -8274.679688 -367226.093750
v 127106.859375 -8274.679688 -345363.031250
v 85524.203125 -8274.679688 -402601.343750
v 85524.203125 -8274.679688 -331850.781250
v 90958.312500 -16595.708984 -362824.281250
v 90958.312500 -16595.708984 -371627.843750
v 127106.859375 -8274.679688 -389089.156250
v 99328.640625 -16595.708984 -360103.687500
v 104504.796875 -16595.708984 -367226.093750
v 99328.640625 -16595.708984 -374348.437500
v 124940.500000 -15805.103516 -367226.093750
v 105641.953125 -15805.103516 -393782.875000
v 74426.421875 -15805.103516 -383638.937500
v 74426.421875 -15805.103516 -350813.187500
v 105641.953125 -15805.103516 -340669.312500
v 98721.718750 -1712.621094 -361444.812500
v 103645.218750 -1922.843750 -367201.375000
v 92617.343750 -1810.707031 -370278.750000
v 98905.765625 -2026.890625 -373524.562500
v 92227.312500 -1826.257812 -363840.562500
v 161357.656250 -8274.679688 -367226.093750
v 228649.750000 -8274.679688 -345363.031250
v 187067.093750 -8274.679688 -402601.343750
v 187067.093750 -8274.679688 -331850.781250
v 192501.187500 -16595.708984 -362824.281250
v 192501.187500 -16595.708984 -371627.843750
v 228649.750000 -8274.679688 -389089.156250
v 200871.531250 -16595.708984 -360103.687500
v 206047.687500 -16595.708984 -367226.093750
v 200871.531250 -16595.708984 -374348.437500
v 226483.375000 -15805.103516 -367226.093750
v 207184.828125 -15805.103516 -393782.875000
v 175969.296875 -15805.103516 -383638.937500
v 175969.296875 -15805.103516 -350813.187500
v 207184.828125 -15805.103516 -340669.312500
v 200264.593750 -1712.621094 -361444.812500
v 205188.093750 -1922.843750 -367201.375000
v 194160.218750 -1810.707031 -370278.750000
v 200448.656250 -2026.890625 -373524.562500
v 193770.187500 -1826.257812 -363840.562500
v 260908.359375 -8274.679688 -367226.093750
v 328200.437500 -8274.679688 -345363.031250
v 286617.812500 -8274.679688 -402601.343750
v 286617.812500 -8274.679688 -331850.781250
v 292051.906250 -16595.708984 -362824.281250
v 292051.906250 -16595.708984 -371627.843750
v 328200.437500 -8274.679688 -389089.156250
v 300422.218750 -16595.708984 -360103.687500
v 305598.406250 -16595.708984 -367226.093750
v 300422.218750 -16595.708984 -374348.437500
v 326034.093750 -15805.103516 -367226.093750
v 306735.531250 -15805.103516 -393782.875000
v 275520.000000 -15805.103516 -383638.937500
v 275520.000000 -15805.103516 -350813.187500
v 306735.531250 -15805.103516 -340669.312500
v 299815.312500 -1712.621094 -361444.812500
v 304738.812500 -1922.843750 -367201.375000
v 293710.937500 -1810.707031 -370278.750000
v 299999.375000 -2026.890625 -373524.562500
v 293320.906250 -1826.257812 -363840.562500
v 356496.312500 -8274.679688 -367226.093750
v 423788.375000 -8274.679688 -345363.031250
v 382205.750000 -8274.679688 -402601.343750
v 382205.750000 -8274.679688 -331850.781250
v 387639.843750 -16595.708984 -362824.281250
v 387639.843750 -16595.708984 -371627.843750
v 423788.375000 -8274.679688 -389089.156250
v 396010.187500 -16595.708984 -360103.687500
v 401186.343750 -16595.708984 -367226.093750
v 396010.187500 -16595.708984 -374348.437500
v 421622.031250 -15805.103516 -367226.093750
v 402323.468750 -15805.103516 -393782.875000
v 371107.937500 -15805.103516 -383638.937500
v 371107.937500 -15805.103516 -350813.187500
v 402323.468750 -15805.103516 -340669.312500
v 395403.250000 -1712.621094 -361444.812500
v 400326.750000 -1922.843750 -367201.375000
v 389298.875000 -1810.707031 -370278.750000
v 395587.312500 -2026.890625 -373524.562500
v 388908.843750 -1826.257812 -363840.562500
vn -0.317700 0.946000 -0.064700
vn -0.208900 0.966100 0.151800
vn -0.159800 0.946000 0.282200
vn 0.016400 0.999600 -0.022500
vn 0.258100 0.966100 0.000000
vn 0.219000 0.946000 0.239100
vn -0.208900 0.966100 -0.151800
vn 0.079800 0.966100 -0.245500
vn -0.036600 0.946000 -0.322200
vn 0.295200 0.945900 -0.134400
vn 0.079800 0.966100 0.245500
vn -0.036600 0.946000 0.322200
vn 0.219000 0.946000 -0.239100
vn -0.317700 0.946000 0.064700
vn -0.159800 0.946000 -0.282200
vn 0.295200 0.945900 0.134400
vn -0.994900 0.081300 -0.060100
vn -0.451100 0.131200 -0.882800
vn -0.346300 0.070200 0.935500
vn 0.807600 0.056600 -0.587000
vn 0.808100 0.046400 0.587300
vn 0.808100 0.046300 0.587300
vn -0.208800 0.966100 0.151800
vn 0.807600 0.056600 -0.586900
vn -0.018000 0.999800 0.001300
vn 0.018700 0.999400 -0.030400
vn -0.993800 0.111500 0.000000
vn -0.308800 0.044800 -0.950100
vn -0.307800 0.091600 0.947000
vn 0.798900 0.047800 -0.599600
vn 0.758500 0.089100 0.645500
usemtl None
s off
f 7//1 12//1 10//1
f 9//2 7//2 10//2
f 3//3 13//3 6//3
f 18//4 16//4 17//4
f 6//5 1//5 5//5
f 1//6 14//6 5//6
f 8//7 2//7 9//7
f 5//8 4//8 8//8
f 2//9 11//9 9//9
f 4//10 15//10 8//10
f 10//11 3//11 6//11
f 11//12 7//12 9//12
f 13//13 1//13 6//13
f 15//14 2//14 8//14
f 14//15 4//15 5//15
f 12//16 3//16 10//16
f 5//17 20//17 18//17
f 6//18 18//18 19//18
f 8//19 16//19 20//19
f 9//20 10//20 19//20
f 8//21 9//21 17//21
f 27//1 32//1 30//1
f 29//2 27//2 30//2
f 23//3 33//3 26//3
f 38//4 36//4 37//4
f 26//5 21//5 25//5
f 21//6 34//6 25//6
f 28//7 22//7 29//7
f 25//8 24//8 28//8
f 22//9 31//9 29//9
f 24//10 35//10 28//10
f 30//11 23//11 26//11
f 31//12 27//12 29//12
f 33//13 21//13 26//13
f 35//14 22//14 28//14
f 34//15 24//15 25//15
f 32//16 23//16 30//16
f 25//17 40//17 38//17
f 26//18 38//18 39//18
f 28//19 36//19 40//19
f 29//20 30//20 39//20
f 28//22 29//22 37//22
f 47//1 52//1 50//1
f 49//2 47//2 50//2
f 43//3 53//3 46//3
f 58//4 56//4 57//4
f 46//5 41//5 45//5
f 41//6 54//6 45//6
f 48//7 42//7 49//7
f 45//8 44//8 48//8
f 42//9 51//9 49//9
f 44//10 55//10 48//10
f 50//11 43//11 46//11
f 51//12 47//12 49//12
f 53//13 41//13 46//13
f 55//14 42//14 48//14
f 54//15 44//15 45//15
f 52//16 43//16 50//16
f 45//17 60//17 58//17
f 46//18 58//18 59//18
f 48//19 56//19 60//19
f 49//20 50//20 59//20
f 48//21 49//21 57//21
f 67//1 72//1 70//1
f 69//2 67//2 70//2
f 63//3 73//3 66//3
f 78//4 76//4 77//4
f 66//5 61//5 65//5
f 61//6 74//6 65//6
f 68//7 62//7 69//7
f 65//8 64//8 68//8
f 62//9 71//9 69//9
f 64//10 75//10 68//10
f 70//11 63//11 66//11
f 71//12 67//12 69//12
f 73//13 61//13 66//13
f 75//14 62//14 68//14
f 74//15 64//15 65//15
f 72//16 63//16 70//16
f 65//17 80//17 78//17
f 66//18 78//18 79//18
f 68//19 76//19 80//19
f 69//20 70//20 79//20
f 68//21 69//21 77//21
f 87//1 92//1 90//1
f 89//2 87//2 90//2
f 83//3 93//3 86//3
f 98//4 96//4 97//4
f 86//5 81//5 85//5
f 81//6 94//6 85//6
f 88//7 82//7 89//7
f 85//8 84//8 88//8
f 82//9 91//9 89//9
f 84//10 95//10 88//10
f 90//11 83//11 86//11
f 91//12 87//12 89//12
f 93//13 81//13 86//13
f 95//14 82//14 88//14
f 94//15 84//15 85//15
f 92//16 83//16 90//16
f 85//17 100//17 98//17
f 86//18 98//18 99//18
f 88//19 96//19 100//19
f 89//20 90//20 99//20
f 88//22 89//22 97//22
f 107//1 112//1 110//1
f 109//2 107//2 110//2
f 103//3 113//3 106//3
f 118//4 116//4 117//4
f 106//5 101//5 105//5
f 101//6 114//6 105//6
f 108//7 102//7 109//7
f 105//8 104//8 108//8
f 102//9 111//9 109//9
f 104//10 115//10 108//10
f 110//11 103//11 106//11
f 111//12 107//12 109//12
f 113//13 101//13 106//13
f 115//14 102//14 108//14
f 114//15 104//15 105//15
f 112//16 103//16 110//16
f 105//17 120//17 118//17
f 106//18 118//18 119//18
f 108//19 116//19 120//19
f 109//20 110//20 119//20
f 108//21 109//21 117//21
f 127//1 132//1 130//1
f 129//2 127//2 130//2
f 123//3 133//3 126//3
f 138//4 136//4 137//4
f 126//5 121//5 125//5
f 121//6 134//6 125//6
f 128//7 122//7 129//7
f 125//8 124//8 128//8
f 122//9 131//9 129//9
f 124//10 135//10 128//10
f 130//11 123//11 126//11
f 131//12 127//12 129//12
f 133//13 121//13 126//13
f 135//14 122//14 128//14
f 134//15 124//15 125//15
f 132//16 123//16 130//16
f 125//17 140//17 138//17
f 126//18 138//18 139//18
f 128//19 136//19 140//19
f 129//20 130//20 139//20
f 128//22 129//22 137//22
f 147//1 152//1 150//1
f 149//2 147//2 150//2
f 143//3 153//3 146//3
f 158//4 156//4 157//4
f 146//5 141//5 145//5
f 141//6 154//6 145//6
f 148//7 142//7 149//7
f 145//8 144//8 148//8
f 142//9 151//9 149//9
f 144//10 155//10 148//10
f 150//11 143//11 146//11
f 151//12 147//12 149//12
f 153//13 141//13 146//13
f 155//14 142//14 148//14
f 154//15 144//15 145//15
f 152//16 143//16 150//16
f 145//17 160//17 158//17
f 146//18 158//18 159//18
f 148//19 156//19 160//19
f 149//20 150//20 159//20
f 148//21 149//21 157//21
f 167//1 172//1 170//1
f 169//2 167//2 170//2
f 163//3 173//3 166//3
f 178//4 176//4 177//4
f 166//5 161//5 165//5
f 161//6 174//6 165//6
f 168//7 162//7 169//7
f 165//8 164//8 168//8
f 162//9 171//9 169//9
f 164//10 175//10 168//10
f 170//11 163//11 166//11
f 171//12 167//12 169//12
f 173//13 161//13 166//13
f 175//14 162//14 168//14
f 174//15 164//15 165//15
f 172//16 163//16 170//16
f 165//17 180//17 178//17
f 166//18 178//18 179//18
f 168//19 176//19 180//19
f 169//20 170//20 179//20
f 168//21 169//21 177//21
f 187//1 192//1 190//1
f 189//2 187//2 190//2
f 183//3 193//3 186//3
f 198//4 196//4 197//4
f 186//5 181//5 185//5
f 181//6 194//6 185//6
f 188//7 182//7 189//7
f 185//8 184//8 188//8
f 182//9 191//9 189//9
f 184//10 195//10 188//10
f 190//11 183//11 186//11
f 191//12 187//12 189//12
f 193//13 181//13 186//13
f 195//14 182//14 188//14
f 194//15 184//15 185//15
f 192//16 183//16 190//16
f 185//17 200//17 198//17
f 186//18 198//18 199//18
f 188//19 196//19 200//19
f 189//20 190//20 199//20
f 188//22 189//22 197//22
f 207//1 212//1 210//1
f 209//23 207//23 210//23
f 203//3 213//3 206//3
f 218//4 216//4 217//4
f 206//5 201//5 205//5
f 201//6 214//6 205//6
f 208//7 202//7 209//7
f 205//8 204//8 208//8
f 202//9 211//9 209//9
f 204//10 215//10 208//10
f 210//11 203//11 206//11
f 211//12 207//12 209//12
f 213//13 201//13 206//13
f 215//14 202//14 208//14
f 214//15 204//15 205//15
f 212//16 203//16 210//16
f 205//17 220//17 218//17
f 206//18 218//18 219//18
f 208//19 216//19 220//19
f 209//20 210//20 219//20
f 208//21 209//21 217//21
f 227//1 232//1 230//1
f 229//2 227//2 230//2
f 223//3 233//3 226//3
f 238//4 236//4 237//4
f 226//5 221//5 225//5
f 221//6 234//6 225//6
f 228//7 222//7 229//7
f 225//8 224//8 228//8
f 222//9 231//9 229//9
f 224//10 235//10 228//10
f 230//11 223//11 226//11
f 231//12 227//12 229//12
f 233//13 221//13 226//13
f 235//14 222//14 228//14
f 234//15 224//15 225//15
f 232//16 223//16 230//16
f 225//17 240//17 238//17
f 226//18 238//18 239//18
f 228//19 236//19 240//19
f 229//20 230//20 239//20
f 228//22 229//22 237//22
f 247//1 252//1 250//1
f 249//2 247//2 250//2
f 243//3 253//3 246//3
f 258//4 256//4 257//4
f 246//5 241//5 245//5
f 241//6 254//6 245//6
f 248//7 242//7 249//7
f 245//8 244//8 248//8
f 242//9 251//9 249//9
f 244//10 255//10 248//10
f 250//11 243//11 246//11
f 251//12 247//12 249//12
f 253//13 241//13 246//13
f 255//14 242//14 248//14
f 254//15 244//15 245//15
f 252//16 243//16 250//16
f 245//17 260//17 258//17
f 246//18 258//18 259//18
f 248//19 256//19 260//19
f 249//20 250//20 259//20
f 248//21 249//21 257//21
f 267//1 272//1 270//1
f 269//23 267//23 270//23
f 263//3 273//3 266//3
f 278//4 276//4 277//4
f 266//5 261//5 265//5
f 261//6 274//6 265//6
f 268//7 262//7 269//7
f 265//8 264//8 268//8
f 262//9 271//9 269//9
f 264//10 275//10 268//10
f 270//11 263//11 266//11
f 271//12 267//12 269//12
f 273//13 261//13 266//13
f 275//14 262//14 268//14
f 274//15 264//15 265//15
f 272//16 263//16 270//16
f 265//17 280//17 278//17
f 266//18 278//18 279//18
f 268//19 276//19 280//19
f 269//20 270//20 279//20
f 268//22 269//22 277//22
f 287//1 292//1 290//1
f 289//2 287//2 290//2
f 283//3 293//3 286//3
f 298//4 296//4 297//4
f 286//5 281//5 285//5
f 281//6 294//6 285//6
f 288//7 282//7 289//7
f 285//8 284//8 288//8
f 282//9 291//9 289//9
f 284//10 295//10 288//10
f 290//11 283//11 286//11
f 291//12 287//12 289//12
f 293//13 281//13 286//13
f 295//14 282//14 288//14
f 294//15 284//15 285//15
f 292//16 283//16 290//16
f 285//17 300//17 298//17
f 286//18 298//18 299//18
f 288//19 296//19 300//19
f 289//20 290//20 299//20
f 288//21 289//21 297//21
f 307//1 312//1 310//1
f 309//2 307//2 310//2
f 303//3 313//3 306//3
f 318//4 316//4 317//4
f 306//5 301//5 305//5
f 301//6 314//6 305//6
f 308//7 302//7 309//7
f 305//8 304//8 308//8
f 302//9 311//9 309//9
f 304//10 315//10 308//10
f 310//11 303//11 306//11
f 311//12 307//12 309//12
f 313//13 301//13 306//13
f 315//14 302//14 308//14
f 314//15 304//15 305//15
f 312//16 303//16 310//16
f 305//17 320//17 318//17
f 306//18 318//18 319//18
f 308//19 316//19 320//19
f 309//20 310//20 319//20
f 308//21 309//21 317//21
f 327//1 332//1 330//1
f 329//2 327//2 330//2
f 323//3 333//3 326//3
f 338//4 336//4 337//4
f 326//5 321//5 325//5
f 321//6 334//6 325//6
f 328//7 322//7 329//7
f 325//8 324//8 328//8
f 322//9 331//9 329//9
f 324//10 335//10 328//10
f 330//11 323//11 326//11
f 331//12 327//12 329//12
f 333//13 321//13 326//13
f 335//14 322//14 328//14
f 334//15 324//15 325//15
f 332//16 323//16 330//16
f 325//17 340//17 338//17
f 326//18 338//18 339//18
f 328//19 336//19 340//19
f 329//24 330//24 339//24
f 328//21 329//21 337//21
f 347//1 352//1 350//1
f 349//2 347//2 350//2
f 343//3 353//3 346//3
f 358//4 356//4 357//4
f 346//5 341//5 345//5
f 341//6 354//6 345//6
f 348//7 342//7 349//7
f 345//8 344//8 348//8
f 342//9 351//9 349//9
f 344//10 355//10 348//10
f 350//11 343//11 346//11
f 351//12 347//12 349//12
f 353//13 341//13 346//13
f 355//14 342//14 348//14
f 354//15 344//15 345//15
f 352//16 343//16 350//16
f 345//17 360//17 358//17
f 346//18 358//18 359//18
f 348//19 356//19 360//19
f 349//24 350//24 359//24
f 348//21 349//21 357//21
f 367//1 372//1 370//1
f 369//2 367//2 370//2
f 363//3 373//3 366//3
f 378//4 376//4 377//4
f 366//5 361//5 365//5
f 361//6 374//6 365//6
f 368//7 362//7 369//7
f 365//8 364//8 368//8
f 362//9 371//9 369//9
f 364//10 375//10 368//10
f 370//11 363//11 366//11
f 371//12 367//12 369//12
f 373//13 361//13 366//13
f 375//14 362//14 368//14
f 374//15 364//15 365//15
f 372//16 363//16 370//16
f 365//17 380//17 378//17
f 366//18 378//18 379//18
f 368//19 376//19 380//19
f 369//20 370//20 379//20
f 368//21 369//21 377//21
f 387//1 392//1 390//1
f 389//2 387//2 390//2
f 383//3 393//3 386//3
f 398//4 396//4 397//4
f 386//5 381//5 385//5
f 381//6 394//6 385//6
f 388//7 382//7 389//7
f 385//8 384//8 388//8
f 382//9 391//9 389//9
f 384//10 395//10 388//10
f 390//11 383//11 386//11
f 391//12 387//12 389//12
f 393//13 381//13 386//13
f 395//14 382//14 388//14
f 394//15 384//15 385//15
f 392//16 383//16 390//16
f 385//17 400//17 398//17
f 386//18 398//18 399//18
f 388//19 396//19 400//19
f 389//24 390//24 399//24
f 388//21 389//21 397//21
f 407//1 412//1 410//1
f 409//2 407//2 410//2
f 403//3 413//3 406//3
f 418//4 416//4 417//4
f 406//5 401//5 405//5
f 401//6 414//6 405//6
f 408//7 402//7 409//7
f 405//8 404//8 408//8
f 402//9 411//9 409//9
f 404//10 415//10 408//10
f 410//11 403//11 406//11
f 411//12 407//12 409//12
f 413//13 401//13 406//13
f 415//14 402//14 408//14
f 414//15 404//15 405//15
f 412//16 403//16 410//16
f 405//17 420//17 418//17
f 406//18 418//18 419//18
f 408//19 416//19 420//19
f 409//20 410//20 419//20
f 408//21 409//21 417//21
f 427//1 432//1 430//1
f 429//2 427//2 430//2
f 423//3 433//3 426//3
f 438//4 436//4 437//4
f 426//5 421//5 425//5
f 421//6 434//6 425//6
f 428//7 422//7 429//7
f 425//8 424//8 428//8
f 422//9 431//9 429//9
f 424//10 435//10 428//10
f 430//11 423//11 426//11
f 431//12 427//12 429//12
f 433//13 421//13 426//13
f 435//14 422//14 428//14
f 434//15 424//15 425//15
f 432//16 423//16 430//16
f 425//17 440//17 438//17
f 426//18 438//18 439//18
f 428//19 436//19 440//19
f 429//24 430//24 439//24
f 428//22 429//22 437//22
f 447//1 452//1 450//1
f 449//2 447//2 450//2
f 443//3 453//3 446//3
f 458//4 456//4 457//4
f 446//5 441//5 445//5
f 441//6 454//6 445//6
f 448//7 442//7 449//7
f 445//8 444//8 448//8
f 442//9 451//9 449//9
f 444//10 455//10 448//10
f 450//11 443//11 446//11
f 451//12 447//12 449//12
f 453//13 441//13 446//13
f 455//14 442//14 448//14
f 454//15 444//15 445//15
f 452//16 443//16 450//16
f 445//17 460//17 458//17
f 446//18 458//18 459//18
f 448//19 456//19 460//19
f 449//24 450//24 459//24
f 448//21 449//21 457//21
f 467//1 472//1 470//1
f 469//2 467//2 470//2
f 463//3 473//3 466//3
f 478//4 476//4 477//4
f 466//5 461//5 465//5
f 461//6 474//6 465//6
f 468//7 462//7 469//7
f 465//8 464//8 468//8
f 462//9 471//9 469//9
f 464//10 475//10 468//10
f 470//11 463//11 466//11
f 471//12 467//12 469//12
f 473//13 461//13 466//13
f 475//14 462//14 468//14
f 474//15 464//15 465//15
f 472//16 463//16 470//16
f 465//17 480//17 478//17
f 466//18 478//18 479//18
f 468//19 476//19 480//19
f 469//20 470//20 479//20
f 468//22 469//22 477//22
f 487//1 492//1 490//1
f 489//2 487//2 490//2
f 483//3 493//3 486//3
f 498//4 496//4 497//4
f 486//5 481//5 485//5
f 481//6 494//6 485//6
f 488//7 482//7 489//7
f 485//8 484//8 488//8
f 482//9 491//9 489//9
f 484//10 495//10 488//10
f 490//11 483//11 486//11
f 491//12 487//12 489//12
f 493//13 481//13 486//13
f 495//14 482//14 488//14
f 494//15 484//15 485//15
f 492//16 483//16 490//16
f 485//17 500//17 498//17
f 486//18 498//18 499//18
f 488//19 496//19 500//19
f 489//24 490//24 499//24
f 488//22 489//22 497//22
f 16//25 18//25 20//25
f 18//26 17//26 19//26
f 6//27 5//27 18//27
f 10//28 6//28 19//28
f 5//29 8//29 20//29
f 17//30 9//30 19//30
f 16//31 8//31 17//31
f 36//25 38//25 40//25
f 38//26 37//26 39//26
f 26//27 25//27 38//27
f 30//28 26//28 39//28
f 25//29 28//29 40//29
f 37//30 29//30 39//30
f 36//31 28//31 37//31
f 56//25 58//25 60//25
f 58//26 57//26 59//26
f 46//27 45//27 58//27
f 50//28 46//28 59//28
f 45//29 48//29 60//29
f 57//30 49//30 59//30
f 56//31 48//31 57//31
f 76//25 78//25 80//25
f 78//26 77//26 79//26
f 66//27 65//27 78//27
f 70//28 66//28 79//28
f 65//29 68//29 80//29
f 77//30 69//30 79//30
f 76//31 68//31 77//31
f 96//25 98//25 100//25
f 98//26 97//26 99//26
f 86//27 85//27 98//27
f 90//28 86//28 99//28
f 85//29 88//29 100//29
f 97//30 89//30 99//30
f 96//31 88//31 97//31
f 116//25 118//25 120//25
f 118//26 117//26 119//26
f 106//27 105//27 118//27
f 110//28 106//28 119//28
f 105//29 108//29 120//29
f 117//30 109//30 119//30
f 116//31 108//31 117//31
f 136//25 138//25 140//25
f 138//26 137//26 139//26
f 126//27 125//27 138//27
f 130//28 126//28 139//28
f 125//29 128//29 140//29
f 137//30 129//30 139//30
f 136//31 128//31 137//31
f 156//25 158//25 160//25
f 158//26 157//26 159//26
f 146//27 145//27 158//27
f 150//28 146//28 159//28
f 145//29 148//29 160//29
f 157//30 149//30 159//30
f 156//31 148//31 157//31
f 176//25 178//25 180//25
f 178//26 177//26 179//26
f 166//27 165//27 178//27
f 170//28 166//28 179//28
f 165//29 168//29 180//29
f 177//30 169//30 179//30
f 176//31 168//31 177//31
f 196//25 198//25 200//25
f 198//26 197//26 199//26
f 186//27 185//27 198//27
f 190//28 186//28 199//28
f 185//29 188//29 200//29
f 197//30 189//30 199//30
f 196//31 188//31 197//31
f 216//25 218//25 220//25
f 218//26 217//26 219//26
f 206//27 205//27 218//27
f 210//28 206//28 219//28
f 205//29 208//29 220//29
f 217//30 209//30 219//30
f 216//31 208//31 217//31
f 236//25 238//25 240//25
f 238//26 237//26 239//26
f 226//27 225//27 238//27
f 230//28 226//28 239//28
f 225//29 228//29 240//29
f 237//30 229//30 239//30
f 236//31 228//31 237//31
f 256//25 258//25 260//25
f 258//26 257//26 259//26
f 246//27 245//27 258//27
f 250//28 246//28 259//28
f 245//29 248//29 260//29
f 257//30 249//30 259//30
f 256//31 248//31 257//31
f 276//25 278//25 280//25
f 278//26 277//26 279//26
f 266//27 265//27 278//27
f 270//28 266//28 279//28
f 265//29 268//29 280//29
f 277//30 269//30 279//30
f 276//31 268//31 277//31
f 296//25 298//25 300//25
f 298//26 297//26 299//26
f 286//27 285//27 298//27
f 290//28 286//28 299//28
f 285//29 288//29 300//29
f 297//30 289//30 299//30
f 296//31 288//31 297//31
f 316//25 318//25 320//25
f 318//26 317//26 319//26
f 306//27 305//27 318//27
f 310//28 306//28 319//28
f 305//29 308//29 320//29
f 317//30 309//30 319//30
f 316//31 308//31 317//31
f 336//25 338//25 340//25
f 338//26 337//26 339//26
f 326//27 325//27 338//27
f 330//28 326//28 339//28
f 325//29 328//29 340//29
f 337//30 329//30 339//30
f 336//31 328//31 337//31
f 356//25 358//25 360//25
f 358//26 357//26 359//26
f 346//27 345//27 358//27
f 350//28 346//28 359//28
f 345//29 348//29 360//29
f 357//30 349//30 359//30
f 356//31 348//31 357//31
f 376//25 378//25 380//25
f 378//26 377//26 379//26
f 366//27 365//27 378//27
f 370//28 366//28 379//28
f 365//29 368//29 380//29
f 377//30 369//30 379//30
f 376//31 368//31 377//31
f 396//25 398//25 400//25
f 398//26 397//26 399//26
f 386//27 385//27 398//27
f 390//28 386//28 399//28
f 385//29 388//29 400//29
f 397//30 389//30 399//30
f 396//31 388//31 397//31
f 416//25 418//25 420//25
f 418//26 417//26 419//26
f 406//27 405//27 418//27
f 410//28 406//28 419//28
f 405//29 408//29 420//29
f 417//30 409//30 419//30
f 416//31 408//31 417//31
f 436//25 438//25 440//25
f 438//26 437//26 439//26
f 426//27 425//27 438//27
f 430//28 426//28 439//28
f 425//29 428//29 440//29
f 437//30 429//30 439//30
f 436//31 428//31 437//31
f 456//25 458//25 460//25
f 458//26 457//26 459//26
f 446//27 445//27 458//27
f 450//28 446//28 459//28
f 445//29 448//29 460//29
f 457//30 449//30 459//30
f 456//31 448//31 457//31
f 476//25 478//25 480//25
f 478//26 477//26 479//26
f 466//27 465//27 478//27
f 470//28 466//28 479//28
f 465//29 468//29 480//29
f 477//30 469//30 479//30
f 476//31 468//31 477//31
f 496//25 498//25 500//25
f 498//26 497//26 499//26
f 486//27 485//27 498//27
f 490//28 486//28 499//28
f 485//29 488//29 500//29
f 497//30 489//30 499//30
f 496//31 488//31 497//31
