# Blender v2.75 (sub 0) OBJ File: 'test2.blend'
# www.blender.org
o stars_Plane.002
v 11.515636 -150.139359 688.596985
v 2147.499756 1951.725342 2305.542969
v -41.262367 -18.872711 1700.517700
v -92.369713 -349.844482 2071.993164
v -56.828911 -217.628998 2301.282715
v -102.495560 -236.830505 3019.806152
v -143.521347 -11.573170 3368.604736
v -300.851624 457.864075 3583.653320
v -710.947144 664.655518 3859.824951
v -1273.609253 917.406189 4474.088867
v -1242.779663 1155.333740 5031.134277
v -790.101379 1322.337769 4652.819336
v -1213.339111 1498.313599 3834.253418
v 3082.153076 1999.385864 2783.541504
v -1664.845825 1498.313599 4211.990723
v -2257.665771 1565.162109 3999.814453
v -2257.665771 1870.932251 4660.323730
v -2257.665771 2252.266846 3808.221924
v -2558.526855 2291.397949 3757.520508
v -2156.512695 2271.640381 2864.040039
v -2156.512695 2267.387939 2284.832764
v -2790.589844 2274.061279 1700.017456
v -2163.253418 2242.865967 1245.546631
v -33.014992 74.234650 4140.743652
v 491.895538 74.234650 4140.743652
v 999.128235 73.940994 3558.218018
v 1520.309692 100.705353 4192.526855
v 2123.770264 95.662918 4192.526855
v 2152.405029 172.982452 3359.057129
v 2152.405029 389.172272 2932.681885
v 2007.189209 389.172272 2418.799072
v 1072.721436 410.881989 2418.799072
v 1124.331177 410.881989 1971.406250
v 1811.778076 367.507751 1524.000244
v 2641.410156 1999.385864 2594.077148
v 708.464600 474.128540 1116.803711
v -227.200104 648.185486 926.261475
v -1143.806152 831.016174 974.413513
v -1143.806152 831.016174 1561.882324
v 2422.769287 385.141724 4825.410156
v 2952.836914 685.302979 4546.750977
v 2303.791748 923.433716 4546.750977
v 2237.395996 829.448669 5455.394531
v 2129.999512 917.088745 5976.863770
v 1534.663818 929.540894 5956.428711
v 1429.407471 1149.177490 5167.901367
v 1674.531006 1590.164551 4061.455322
v 2146.030762 1590.164551 4061.455322
v 2685.677002 1589.759155 4748.065430
v 3045.081787 1616.932129 4115.145996
v 11.515636 -94.133041 1028.239014
v -143.521347 288.831390 3779.910645
v 235.783051 74.234650 4255.955078
v 1823.914795 74.234650 4328.137695
v 692.852051 73.940994 3716.554199
v 1319.277954 73.940994 3716.554199
v 2152.405029 -38.962036 3668.826660
v 2204.654053 383.749390 2584.480225
v 1634.833740 379.800812 1795.503906
v 1634.833740 410.881989 1128.479492
v -572.507080 725.701294 953.096802
v 1178.436890 287.993439 1116.803711
v -1312.010620 1488.831055 4302.003418
v -1742.395630 1489.344849 3672.937744
v -1915.542480 2078.947021 4155.247559
v -2744.819336 2272.826416 3411.875977
v -2558.526855 2291.397949 3042.705078
v -1990.490967 2271.640381 2513.995361
v -2578.743896 2274.061279 2094.053955
v -2594.593994 2274.061279 1361.869019
v -1739.730957 2466.747803 1301.056641
v 1726.218140 379.467285 2641.650391
v 2237.395996 829.448669 5083.063477
v 1812.627563 917.084961 6123.799805
v 2419.497314 1589.759155 4679.700195
v 2926.560303 1589.759155 4679.700195
v 3080.035645 1897.745361 3798.604004
v 2866.220703 1999.385864 2910.893311
v 1671.792480 1985.403809 2185.489990
